[
    {
        "id": "5a96a2ad398ea",
        "module": "three_goals",
        "fields": {
            "icon1": {
                "type": "text",
                "value": "flash_on"
            },
            "content1": {
                "type": "text",
                "value": "<h5>Cr\u00e9er un site web en moins d'une heure<\/h5><p>Cet outil \u00e0 une envie : vous faciliter la vie dans la cr\u00e9ation de votre site web!<\/p>"
            },
            "icon2": {
                "type": "text",
                "value": "group"
            },
            "content2": {
                "type": "text",
                "value": "<h5>D'une simplicit\u00e9 d\u00e9coiffante<\/h5><p>Une cr\u00e9ation de page pens\u00e9e pour etre la plus intuitive possible.<\/p>"
            },
            "icon3": {
                "type": "text",
                "value": "settings"
            },
            "content3": {
                "type": "text",
                "value": "<h5>Configuration simple et personnalis\u00e9e<\/h5><p>Nous avons essay\u00e9 de trouver le parfait compromis entre simplicit\u00e9 et options vari\u00e9es<\/p>"
            }
        }
    },
    {
        "id": "5a96ceb9564f6",
        "module": "calendar",
        "fields": {
            "agendaType": {
                "type": "text",
                "value": "framagenda"
            },
            "agendaId": {
                "type": "text",
                "value": "HTgfkNSppLJDLJfW"
            },
            "title": {
                "type": "text",
                "value": "<h4>Agenda<\/h4>"
            },
            "content": {
                "type": "text",
                "value": "<p>Lorem ipsum dolor sit amet, consectetur adipisicing elit. Amet architecto assumenda consequuntur esse eum facere, illum libero molestiae nam <\/p>"
            }
        }
    },
    {
        "id": "5a96a2ad3995f",
        "module": "button_design",
        "fields": {
            "imgUrl": {
                "type": "text",
                "value": "app\/views\/modules\/gallery\/aquarelle_17.jpg"
            },
            "text": {
                "type": "text",
                "value": "<p>Si vous souhaitez remercier son cr\u00e9ateur, et l'encourager \u00e0 maintenir cet outil et le rendre de plus en plus ergonomique, avec une petite donnation, c'est ici<\/p>"
            },
            "title": {
                "type": "text",
                "value": "<h5>Cet outil vous est utile?<\/h5>"
            },
            "btnLabel": {
                "type": "text",
                "value": "Soutenir l'auteur"
            },
            "btnValue": {
                "type": "text",
                "value": "https:\/\/www.patreon.com\/robinbanquo"
            }
        }
    },
    {
        "id": "5a96a2ad399cc",
        "module": "button",
        "fields": {
            "imgUrl": {
                "type": "text",
                "value": ""
            },
            "text": {
                "type": "text",
                "value": "<p style=\"text-align:center;\">Vous avez des comp\u00e9tences en d\u00e9veloppement ou en design ?<\/p><p style=\"text-align:center;\">Des id\u00e9es pour am\u00e9liorer cet outil ?<\/p>"
            },
            "btnLabel": {
                "type": "text",
                "value": "Contribuer \u00e0 cet outil !"
            },
            "btnValue": {
                "type": "text",
                "value": "https:\/\/framagit.org\/framasoft\/PrettyNoemieCMS"
            }
        }
    },
    {
        "id": "footer",
        "fields": {
            "rightText": {
                "type": "text",
                "value": "<h5 class=\"second-color\"><\/h5><p class=\"second-color\">Lorem ipsum dolor sit amet, consectetur adipisicing elit. Accusamus blanditiis explicabo facilis fuga, fugit, id impedit <\/p>"
            },
            "leftText": {
                "type": "text",
                "value": "<h5 class=\"second-color\">PrettyNoemieCMS<\/h5><p class=\"second-color\">Made with love by <b><a href=\"https:\/\/www.patreon.com\/robinbanquo\">Robin Banquo<\/a><\/b><\/p><p><\/p>"
            }
        }
    }
]